%YAML 1.1
%TAG !u! tag:unity3d.com,2011:
--- !u!1 &6383412148539963579
GameObject:
  m_ObjectHideFlags: 0
  m_CorrespondingSourceObject: {fileID: 0}
  m_PrefabInstance: {fileID: 0}
  m_PrefabAsset: {fileID: 0}
  serializedVersion: 6
  m_Component:
  - component: {fileID: 6383412148539963582}
  - component: {fileID: 6383412148539963583}
  - component: {fileID: 6383412148539963576}
  m_Layer: 0
  m_Name: VoxelChunk
  m_TagString: Untagged
  m_Icon: {fileID: 0}
  m_NavMeshLayer: 0
  m_StaticEditorFlags: 0
  m_IsActive: 1
--- !u!4 &6383412148539963582
Transform:
  m_ObjectHideFlags: 0
  m_CorrespondingSourceObject: {fileID: 0}
  m_PrefabInstance: {fileID: 0}
  m_PrefabAsset: {fileID: 0}
  m_GameObject: {fileID: 6383412148539963579}
  m_LocalRotation: {x: -0, y: -0, z: -0, w: 1}
  m_LocalPosition: {x: 0, y: 0, z: 0}
  m_LocalScale: {x: 1, y: 1, z: 1}
  m_Children: []
  m_Father: {fileID: 0}
  m_RootOrder: 0
  m_LocalEulerAnglesHint: {x: 0, y: 0, z: 0}
--- !u!114 &6383412148539963583
MonoBehaviour:
  m_ObjectHideFlags: 0
  m_CorrespondingSourceObject: {fileID: 0}
  m_PrefabInstance: {fileID: 0}
  m_PrefabAsset: {fileID: 0}
  m_GameObject: {fileID: 6383412148539963579}
  m_Enabled: 1
  m_EditorHideFlags: 0
  m_Script: {fileID: 11500000, guid: 934405e58ca33b740b27b242159eb4b2, type: 3}
  m_Name: 
  m_EditorClassIdentifier: 
  volume: {fileID: 6383412148539963576}
  material: {fileID: 2100000, guid: bdb0379796de2fe478857c22138e2cbf, type: 2}
  volumeSize: 64
  chunkSide: 32
--- !u!114 &6383412148539963576
MonoBehaviour:
  m_ObjectHideFlags: 0
  m_CorrespondingSourceObject: {fileID: 0}
  m_PrefabInstance: {fileID: 0}
  m_PrefabAsset: {fileID: 0}
  m_GameObject: {fileID: 6383412148539963579}
  m_Enabled: 1
  m_EditorHideFlags: 0
  m_Script: {fileID: 11500000, guid: 857092df1ab867549ab333427963384d, type: 3}
  m_Name: 
  m_EditorClassIdentifier: 
  volumeUpdate:
    m_PersistentCalls:
      m_Calls: []
  volumeWidth: 0
